<svg width="16px" height="16px" viewBox="0 0 16 16">
<path d="M15.5,3.5l-3-3C12.2,0.2,11.7,0,11.3,0H1.7C0.8,0,0,0.8,0,1.7v12.6C0,15.2,0.8,16,1.7,16h12.6c0.9,0,1.7-0.8,1.7-1.7V4.7
	C16,4.3,15.8,3.8,15.5,3.5L15.5,3.5z M8,13.7c-1.3,0-2.3-1-2.3-2.3s1-2.3,2.3-2.3s2.3,1,2.3,2.3S9.3,13.7,8,13.7z M11.4,2.8v3.6
	c0,0.2-0.2,0.4-0.4,0.4H2.7c-0.2,0-0.4-0.2-0.4-0.4V2.7c0-0.2,0.2-0.4,0.4-0.4h8.2c0.1,0,0.2,0,0.3,0.1l0.1,0.1
	C11.4,2.6,11.4,2.7,11.4,2.8z"/>
</svg>
